6111work/Project/test.vcd
$date
	Sat Sep 29 22:55:11 2018
$end
$version
	Icarus Verilog
$end
$timescale
	1s
$end
$scope module soduku_solver_tb $end
$var wire 324 ! test_output [323:0] $end
$var reg 1 " clk $end
$var reg 1 # reset $end
$var reg 324 $ test_input [323:0] $end
$scope module ss1 $end
$var wire 324 % board_in [323:0] $end
$var wire 1 " clk_in $end
$var wire 1 # reset_in $end
$var wire 9 & squares_solved [8:0] $end
$var wire 9 ' rows_solved [8:0] $end
$var wire 9 ( cols_solved [8:0] $end
$var wire 324 ) board_out [323:0] $end
$scope function bcd $end
$upscope $end
$scope function one_hot $end
$upscope $end
$scope function valid_one_cold $end
$upscope $end
$scope begin genblk1[0] $end
$scope begin genblk2[0] $end
$upscope $end
$scope begin genblk2[1] $end
$upscope $end
$scope begin genblk2[2] $end
$upscope $end
$scope begin genblk2[3] $end
$upscope $end
$scope begin genblk2[4] $end
$upscope $end
$scope begin genblk2[5] $end
$upscope $end
$scope begin genblk2[6] $end
$upscope $end
$scope begin genblk2[7] $end
$upscope $end
$scope begin genblk2[8] $end
$upscope $end
$upscope $end
$scope begin genblk1[1] $end
$scope begin genblk2[0] $end
$upscope $end
$scope begin genblk2[1] $end
$upscope $end
$scope begin genblk2[2] $end
$upscope $end
$scope begin genblk2[3] $end
$upscope $end
$scope begin genblk2[4] $end
$upscope $end
$scope begin genblk2[5] $end
$upscope $end
$scope begin genblk2[6] $end
$upscope $end
$scope begin genblk2[7] $end
$upscope $end
$scope begin genblk2[8] $end
$upscope $end
$upscope $end
$scope begin genblk1[2] $end
$scope begin genblk2[0] $end
$upscope $end
$scope begin genblk2[1] $end
$upscope $end
$scope begin genblk2[2] $end
$upscope $end
$scope begin genblk2[3] $end
$upscope $end
$scope begin genblk2[4] $end
$upscope $end
$scope begin genblk2[5] $end
$upscope $end
$scope begin genblk2[6] $end
$upscope $end
$scope begin genblk2[7] $end
$upscope $end
$scope begin genblk2[8] $end
$upscope $end
$upscope $end
$scope begin genblk1[3] $end
$scope begin genblk2[0] $end
$upscope $end
$scope begin genblk2[1] $end
$upscope $end
$scope begin genblk2[2] $end
$upscope $end
$scope begin genblk2[3] $end
$upscope $end
$scope begin genblk2[4] $end
$upscope $end
$scope begin genblk2[5] $end
$upscope $end
$scope begin genblk2[6] $end
$upscope $end
$scope begin genblk2[7] $end
$upscope $end
$scope begin genblk2[8] $end
$upscope $end
$upscope $end
$scope begin genblk1[4] $end
$scope begin genblk2[0] $end
$upscope $end
$scope begin genblk2[1] $end
$upscope $end
$scope begin genblk2[2] $end
$upscope $end
$scope begin genblk2[3] $end
$upscope $end
$scope begin genblk2[4] $end
$upscope $end
$scope begin genblk2[5] $end
$upscope $end
$scope begin genblk2[6] $end
$upscope $end
$scope begin genblk2[7] $end
$upscope $end
$scope begin genblk2[8] $end
$upscope $end
$upscope $end
$scope begin genblk1[5] $end
$scope begin genblk2[0] $end
$upscope $end
$scope begin genblk2[1] $end
$upscope $end
$scope begin genblk2[2] $end
$upscope $end
$scope begin genblk2[3] $end
$upscope $end
$scope begin genblk2[4] $end
$upscope $end
$scope begin genblk2[5] $end
$upscope $end
$scope begin genblk2[6] $end
$upscope $end
$scope begin genblk2[7] $end
$upscope $end
$scope begin genblk2[8] $end
$upscope $end
$upscope $end
$scope begin genblk1[6] $end
$scope begin genblk2[0] $end
$upscope $end
$scope begin genblk2[1] $end
$upscope $end
$scope begin genblk2[2] $end
$upscope $end
$scope begin genblk2[3] $end
$upscope $end
$scope begin genblk2[4] $end
$upscope $end
$scope begin genblk2[5] $end
$upscope $end
$scope begin genblk2[6] $end
$upscope $end
$scope begin genblk2[7] $end
$upscope $end
$scope begin genblk2[8] $end
$upscope $end
$upscope $end
$scope begin genblk1[7] $end
$scope begin genblk2[0] $end
$upscope $end
$scope begin genblk2[1] $end
$upscope $end
$scope begin genblk2[2] $end
$upscope $end
$scope begin genblk2[3] $end
$upscope $end
$scope begin genblk2[4] $end
$upscope $end
$scope begin genblk2[5] $end
$upscope $end
$scope begin genblk2[6] $end
$upscope $end
$scope begin genblk2[7] $end
$upscope $end
$scope begin genblk2[8] $end
$upscope $end
$upscope $end
$scope begin genblk1[8] $end
$scope begin genblk2[0] $end
$upscope $end
$scope begin genblk2[1] $end
$upscope $end
$scope begin genblk2[2] $end
$upscope $end
$scope begin genblk2[3] $end
$upscope $end
$scope begin genblk2[4] $end
$upscope $end
$scope begin genblk2[5] $end
$upscope $end
$scope begin genblk2[6] $end
$upscope $end
$scope begin genblk2[7] $end
$upscope $end
$scope begin genblk2[8] $end
$upscope $end
$upscope $end
$scope begin genblk3[0] $end
$upscope $end
$scope begin genblk3[1] $end
$upscope $end
$scope begin genblk3[2] $end
$upscope $end
$scope begin genblk3[3] $end
$upscope $end
$scope begin genblk3[4] $end
$upscope $end
$scope begin genblk3[5] $end
$upscope $end
$scope begin genblk3[6] $end
$upscope $end
$scope begin genblk3[7] $end
$upscope $end
$scope begin genblk3[8] $end
$upscope $end
$scope begin genblk4[0] $end
$scope begin genblk5[0] $end
$upscope $end
$scope begin genblk5[1] $end
$upscope $end
$scope begin genblk5[2] $end
$upscope $end
$upscope $end
$scope begin genblk4[1] $end
$scope begin genblk5[0] $end
$upscope $end
$scope begin genblk5[1] $end
$upscope $end
$scope begin genblk5[2] $end
$upscope $end
$upscope $end
$scope begin genblk4[2] $end
$scope begin genblk5[0] $end
$upscope $end
$scope begin genblk5[1] $end
$upscope $end
$scope begin genblk5[2] $end
$upscope $end
$upscope $end
$upscope $end
$scope task printstatus $end
$upscope $end
$upscope $end
$enddefinitions $end
#0
$dumpvars
b0 )
bx (
bx '
bx &
b0 %
b0 $
1#
0"
b0 !
$end
#5
b0 (
b0 &
b0 '
1"
#10
0"
b1001010100100000010011011010010111011100011001011000100101100000110100100001100011010001111001000100100101010000110101100101100001011110000010000100100111010101001000100101100011011010011000011100110010010001010001001110000010000110010100010101110110010101110001001010000110001101001001100101000110001101010111001000011000 $
b1001010100100000010011011010010111011100011001011000100101100000110100100001100011010001111001000100100101010000110101100101100001011110000010000100100111010101001000100101100011011010011000011100110010010001010001001110000010000110010100010101110110010101110001001010000110001101001001100101000110001101010111001000011000 %
#15
b111111111 (
b111111111 &
b111111111 '
b100000010010011101010011011001001001100101000011011010000010000101110101011001110101010010010001001010000011000101010100001000110111100010010110001101101001100001000101011100100001001010000111000101101001010100110100010100100001100101110100001101101000010000111000010100100110100100010111011110010110001100011000010001010010 !
b100000010010011101010011011001001001100101000011011010000010000101110101011001110101010010010001001010000011000101010100001000110111100010010110001101101001100001000101011100100001001010000111000101101001010100110100010100100001100101110100001101101000010000111000010100100110100100010111011110010110001100011000010001010010 )
1"
#20
0"
b1010100100000010011011010010111011100011001011000100101100000110100100001100011010001111001000100100101010000110101100101100001011110000010000100100111010101001000100101100011011010011000011100110010010001010001001110000010000110010100010101110110010101110001001010000110001101001001100101000110001101010111001000011000 $
b1010100100000010011011010010111011100011001011000100101100000110100100001100011010001111001000100100101010000110101100101100001011110000010000100100111010101001000100101100011011010011000011100110010010001010001001110000010000110010100010101110110010101110001001010000110001101001001100101000110001101010111001000011000 %
#25
b100000010010011101010011011001001001100101000011011010000010000101110101011001110101010010010001001010000011000101010100001000110111100010010110001101101001100001000101011100100001001010000111000101101001010100110100010100100001100101110100001101101000010000111000010100100110100100010111011110010110001100011000010001010000 !
b100000010010011101010011011001001001100101000011011010000010000101110101011001110101010010010001001010000011000101010100001000110111100010010110001101101001100001000101011100100001001010000111000101101001010100110100010100100001100101110100001101101000010000111000010100100110100100010111011110010110001100011000010001010000 )
b11111111 '
b11111111 (
b11111111 &
1"
#30
0"
b1010100100000010011011010010111011100011001011000100101100000110100100001100011010001111001000100100101010000110101100101100001011110000010000100100111010101001000100101100011011010011000011100110000010001010001001110000010000110010100010101110110010101110001001010000110001101001001100101000110001101010111001000011000 $
b1010100100000010011011010010111011100011001011000100101100000110100100001100011010001111001000100100101010000110101100101100001011110000010000100100111010101001000100101100011011010011000011100110000010001010001001110000010000110010100010101110110010101110001001010000110001101001001100101000110001101010111001000011000 %
#35
b11101111 &
b11110111 '
b11110111 (
b100000010010011101010011011001001001100101000011011010000010000101110101011001110101010010010001001010000011000101010100000000110111100010010110001101101001100001000101011100100001001010000111000101101001010100110100010100100001100101110100001101101000010000111000010100100110100100010111011110010110001100011000010001010000 !
b100000010010011101010011011001001001100101000011011010000010000101110101011001110101010010010001001010000011000101010100000000110111100010010110001101101001100001000101011100100001001010000111000101101001010100110100010100100001100101110100001101101000010000111000010100100110100100010111011110010110001100011000010001010000 )
1"
#40
0"
b1010100100000010011011010010111011100011001011000100101100000110100100001100011010001111001000100100101010000110101100101100001011110000010000100100111010101001000100101100011011010011000011100110000010001010001001110000010000110010100010101110110010101110001001010000110001101001001100101000110001101010000001000011000 $
b1010100100000010011011010010111011100011001011000100101100000110100100001100011010001111001000100100101010000110101100101100001011110000010000100100111010101001000100101100011011010011000011100110000010001010001001110000010000110010100010101110110010101110001001010000110001101001001100101000110001101010000001000011000 %
#45
b11101101 &
b11110110 '
b100000010010000001010011011001001001100101000011011010000010000101110101011001110101010010010001001010000011000101010100000000110111100010010110001101101001100001000101011100100001001010000111000101101001010100110100010100100001100101110100001101101000010000111000010100100110100100010111011110010110001100011000010001010000 !
b100000010010000001010011011001001001100101000011011010000010000101110101011001110101010010010001001010000011000101010100000000110111100010010110001101101001100001000101011100100001001010000111000101101001010100110100010100100001100101110100001101101000010000111000010100100110100100010111011110010110001100011000010001010000 )
1"
