6111work/Project/test.vcd
$date
	Sun Sep 30 15:23:05 2018
$end
$version
	Icarus Verilog
$end
$timescale
	1s
$end
$scope module soduku_solver_tb $end
$var wire 324 ! test_output [323:0] $end
$var reg 1 " clk $end
$var reg 1 # reset $end
$var reg 324 $ test_input [323:0] $end
$scope module ss1 $end
$var wire 324 % board_in [323:0] $end
$var wire 1 " clk_in $end
$var wire 1 # reset_in $end
$var wire 9 & squares_solved [8:0] $end
$var wire 9 ' rows_solved [8:0] $end
$var wire 9 ( cols_solved [8:0] $end
$var wire 324 ) board_out [323:0] $end
$scope function bcd $end
$upscope $end
$scope function one_hot $end
$upscope $end
$scope function singleton_solve $end
$upscope $end
$scope function valid_one_cold $end
$upscope $end
$scope begin missing_generator[0] $end
$upscope $end
$scope begin missing_generator[1] $end
$upscope $end
$scope begin missing_generator[2] $end
$upscope $end
$scope begin missing_generator[3] $end
$upscope $end
$scope begin missing_generator[4] $end
$upscope $end
$scope begin missing_generator[5] $end
$upscope $end
$scope begin missing_generator[6] $end
$upscope $end
$scope begin missing_generator[7] $end
$upscope $end
$scope begin missing_generator[8] $end
$upscope $end
$scope begin row_generator[0] $end
$scope begin col_generator[0] $end
$var wire 9 * squares_missing_single [8:0] $end
$scope begin genblk18 $end
$upscope $end
$upscope $end
$scope begin col_generator[1] $end
$var wire 9 + squares_missing_single [8:0] $end
$scope begin genblk18 $end
$upscope $end
$upscope $end
$scope begin col_generator[2] $end
$var wire 9 , squares_missing_single [8:0] $end
$scope begin genblk18 $end
$upscope $end
$upscope $end
$scope begin col_generator[3] $end
$var wire 9 - squares_missing_single [8:0] $end
$scope begin genblk17 $end
$upscope $end
$upscope $end
$scope begin col_generator[4] $end
$var wire 9 . squares_missing_single [8:0] $end
$scope begin genblk17 $end
$upscope $end
$upscope $end
$scope begin col_generator[5] $end
$var wire 9 / squares_missing_single [8:0] $end
$scope begin genblk17 $end
$upscope $end
$upscope $end
$scope begin col_generator[6] $end
$var wire 9 0 squares_missing_single [8:0] $end
$scope begin genblk15 $end
$upscope $end
$upscope $end
$scope begin col_generator[7] $end
$var wire 9 1 squares_missing_single [8:0] $end
$scope begin genblk15 $end
$upscope $end
$upscope $end
$scope begin col_generator[8] $end
$var wire 9 2 squares_missing_single [8:0] $end
$scope begin genblk15 $end
$upscope $end
$upscope $end
$upscope $end
$scope begin row_generator[1] $end
$scope begin col_generator[0] $end
$var wire 9 3 squares_missing_single [8:0] $end
$scope begin genblk18 $end
$upscope $end
$upscope $end
$scope begin col_generator[1] $end
$var wire 9 4 squares_missing_single [8:0] $end
$scope begin genblk18 $end
$upscope $end
$upscope $end
$scope begin col_generator[2] $end
$var wire 9 5 squares_missing_single [8:0] $end
$scope begin genblk18 $end
$upscope $end
$upscope $end
$scope begin col_generator[3] $end
$var wire 9 6 squares_missing_single [8:0] $end
$scope begin genblk17 $end
$upscope $end
$upscope $end
$scope begin col_generator[4] $end
$var wire 9 7 squares_missing_single [8:0] $end
$scope begin genblk17 $end
$upscope $end
$upscope $end
$scope begin col_generator[5] $end
$var wire 9 8 squares_missing_single [8:0] $end
$scope begin genblk17 $end
$upscope $end
$upscope $end
$scope begin col_generator[6] $end
$var wire 9 9 squares_missing_single [8:0] $end
$scope begin genblk15 $end
$upscope $end
$upscope $end
$scope begin col_generator[7] $end
$var wire 9 : squares_missing_single [8:0] $end
$scope begin genblk15 $end
$upscope $end
$upscope $end
$scope begin col_generator[8] $end
$var wire 9 ; squares_missing_single [8:0] $end
$scope begin genblk15 $end
$upscope $end
$upscope $end
$upscope $end
$scope begin row_generator[2] $end
$scope begin col_generator[0] $end
$var wire 9 < squares_missing_single [8:0] $end
$scope begin genblk18 $end
$upscope $end
$upscope $end
$scope begin col_generator[1] $end
$var wire 9 = squares_missing_single [8:0] $end
$scope begin genblk18 $end
$upscope $end
$upscope $end
$scope begin col_generator[2] $end
$var wire 9 > squares_missing_single [8:0] $end
$scope begin genblk18 $end
$upscope $end
$upscope $end
$scope begin col_generator[3] $end
$var wire 9 ? squares_missing_single [8:0] $end
$scope begin genblk17 $end
$upscope $end
$upscope $end
$scope begin col_generator[4] $end
$var wire 9 @ squares_missing_single [8:0] $end
$scope begin genblk17 $end
$upscope $end
$upscope $end
$scope begin col_generator[5] $end
$var wire 9 A squares_missing_single [8:0] $end
$scope begin genblk17 $end
$upscope $end
$upscope $end
$scope begin col_generator[6] $end
$var wire 9 B squares_missing_single [8:0] $end
$scope begin genblk15 $end
$upscope $end
$upscope $end
$scope begin col_generator[7] $end
$var wire 9 C squares_missing_single [8:0] $end
$scope begin genblk15 $end
$upscope $end
$upscope $end
$scope begin col_generator[8] $end
$var wire 9 D squares_missing_single [8:0] $end
$scope begin genblk15 $end
$upscope $end
$upscope $end
$upscope $end
$scope begin row_generator[3] $end
$scope begin col_generator[0] $end
$var wire 9 E squares_missing_single [8:0] $end
$scope begin genblk13 $end
$upscope $end
$upscope $end
$scope begin col_generator[1] $end
$var wire 9 F squares_missing_single [8:0] $end
$scope begin genblk13 $end
$upscope $end
$upscope $end
$scope begin col_generator[2] $end
$var wire 9 G squares_missing_single [8:0] $end
$scope begin genblk13 $end
$upscope $end
$upscope $end
$scope begin col_generator[3] $end
$var wire 9 H squares_missing_single [8:0] $end
$scope begin genblk12 $end
$upscope $end
$upscope $end
$scope begin col_generator[4] $end
$var wire 9 I squares_missing_single [8:0] $end
$scope begin genblk12 $end
$upscope $end
$upscope $end
$scope begin col_generator[5] $end
$var wire 9 J squares_missing_single [8:0] $end
$scope begin genblk12 $end
$upscope $end
$upscope $end
$scope begin col_generator[6] $end
$var wire 9 K squares_missing_single [8:0] $end
$scope begin genblk10 $end
$upscope $end
$upscope $end
$scope begin col_generator[7] $end
$var wire 9 L squares_missing_single [8:0] $end
$scope begin genblk10 $end
$upscope $end
$upscope $end
$scope begin col_generator[8] $end
$var wire 9 M squares_missing_single [8:0] $end
$scope begin genblk10 $end
$upscope $end
$upscope $end
$upscope $end
$scope begin row_generator[4] $end
$scope begin col_generator[0] $end
$var wire 9 N squares_missing_single [8:0] $end
$scope begin genblk13 $end
$upscope $end
$upscope $end
$scope begin col_generator[1] $end
$var wire 9 O squares_missing_single [8:0] $end
$scope begin genblk13 $end
$upscope $end
$upscope $end
$scope begin col_generator[2] $end
$var wire 9 P squares_missing_single [8:0] $end
$scope begin genblk13 $end
$upscope $end
$upscope $end
$scope begin col_generator[3] $end
$var wire 9 Q squares_missing_single [8:0] $end
$scope begin genblk12 $end
$upscope $end
$upscope $end
$scope begin col_generator[4] $end
$var wire 9 R squares_missing_single [8:0] $end
$scope begin genblk12 $end
$upscope $end
$upscope $end
$scope begin col_generator[5] $end
$var wire 9 S squares_missing_single [8:0] $end
$scope begin genblk12 $end
$upscope $end
$upscope $end
$scope begin col_generator[6] $end
$var wire 9 T squares_missing_single [8:0] $end
$scope begin genblk10 $end
$upscope $end
$upscope $end
$scope begin col_generator[7] $end
$var wire 9 U squares_missing_single [8:0] $end
$scope begin genblk10 $end
$upscope $end
$upscope $end
$scope begin col_generator[8] $end
$var wire 9 V squares_missing_single [8:0] $end
$scope begin genblk10 $end
$upscope $end
$upscope $end
$upscope $end
$scope begin row_generator[5] $end
$scope begin col_generator[0] $end
$var wire 9 W squares_missing_single [8:0] $end
$scope begin genblk13 $end
$upscope $end
$upscope $end
$scope begin col_generator[1] $end
$var wire 9 X squares_missing_single [8:0] $end
$scope begin genblk13 $end
$upscope $end
$upscope $end
$scope begin col_generator[2] $end
$var wire 9 Y squares_missing_single [8:0] $end
$scope begin genblk13 $end
$upscope $end
$upscope $end
$scope begin col_generator[3] $end
$var wire 9 Z squares_missing_single [8:0] $end
$scope begin genblk12 $end
$upscope $end
$upscope $end
$scope begin col_generator[4] $end
$var wire 9 [ squares_missing_single [8:0] $end
$scope begin genblk12 $end
$upscope $end
$upscope $end
$scope begin col_generator[5] $end
$var wire 9 \ squares_missing_single [8:0] $end
$scope begin genblk12 $end
$upscope $end
$upscope $end
$scope begin col_generator[6] $end
$var wire 9 ] squares_missing_single [8:0] $end
$scope begin genblk10 $end
$upscope $end
$upscope $end
$scope begin col_generator[7] $end
$var wire 9 ^ squares_missing_single [8:0] $end
$scope begin genblk10 $end
$upscope $end
$upscope $end
$scope begin col_generator[8] $end
$var wire 9 _ squares_missing_single [8:0] $end
$scope begin genblk10 $end
$upscope $end
$upscope $end
$upscope $end
$scope begin row_generator[6] $end
$scope begin col_generator[0] $end
$var wire 9 ` squares_missing_single [8:0] $end
$scope begin genblk7 $end
$upscope $end
$upscope $end
$scope begin col_generator[1] $end
$var wire 9 a squares_missing_single [8:0] $end
$scope begin genblk7 $end
$upscope $end
$upscope $end
$scope begin col_generator[2] $end
$var wire 9 b squares_missing_single [8:0] $end
$scope begin genblk7 $end
$upscope $end
$upscope $end
$scope begin col_generator[3] $end
$var wire 9 c squares_missing_single [8:0] $end
$scope begin genblk6 $end
$upscope $end
$upscope $end
$scope begin col_generator[4] $end
$var wire 9 d squares_missing_single [8:0] $end
$scope begin genblk6 $end
$upscope $end
$upscope $end
$scope begin col_generator[5] $end
$var wire 9 e squares_missing_single [8:0] $end
$scope begin genblk6 $end
$upscope $end
$upscope $end
$scope begin col_generator[6] $end
$var wire 9 f squares_missing_single [8:0] $end
$scope begin genblk4 $end
$upscope $end
$upscope $end
$scope begin col_generator[7] $end
$var wire 9 g squares_missing_single [8:0] $end
$scope begin genblk4 $end
$upscope $end
$upscope $end
$scope begin col_generator[8] $end
$var wire 9 h squares_missing_single [8:0] $end
$scope begin genblk4 $end
$upscope $end
$upscope $end
$upscope $end
$scope begin row_generator[7] $end
$scope begin col_generator[0] $end
$var wire 9 i squares_missing_single [8:0] $end
$scope begin genblk7 $end
$upscope $end
$upscope $end
$scope begin col_generator[1] $end
$var wire 9 j squares_missing_single [8:0] $end
$scope begin genblk7 $end
$upscope $end
$upscope $end
$scope begin col_generator[2] $end
$var wire 9 k squares_missing_single [8:0] $end
$scope begin genblk7 $end
$upscope $end
$upscope $end
$scope begin col_generator[3] $end
$var wire 9 l squares_missing_single [8:0] $end
$scope begin genblk6 $end
$upscope $end
$upscope $end
$scope begin col_generator[4] $end
$var wire 9 m squares_missing_single [8:0] $end
$scope begin genblk6 $end
$upscope $end
$upscope $end
$scope begin col_generator[5] $end
$var wire 9 n squares_missing_single [8:0] $end
$scope begin genblk6 $end
$upscope $end
$upscope $end
$scope begin col_generator[6] $end
$var wire 9 o squares_missing_single [8:0] $end
$scope begin genblk4 $end
$upscope $end
$upscope $end
$scope begin col_generator[7] $end
$var wire 9 p squares_missing_single [8:0] $end
$scope begin genblk4 $end
$upscope $end
$upscope $end
$scope begin col_generator[8] $end
$var wire 9 q squares_missing_single [8:0] $end
$scope begin genblk4 $end
$upscope $end
$upscope $end
$upscope $end
$scope begin row_generator[8] $end
$scope begin col_generator[0] $end
$var wire 9 r squares_missing_single [8:0] $end
$scope begin genblk7 $end
$upscope $end
$upscope $end
$scope begin col_generator[1] $end
$var wire 9 s squares_missing_single [8:0] $end
$scope begin genblk7 $end
$upscope $end
$upscope $end
$scope begin col_generator[2] $end
$var wire 9 t squares_missing_single [8:0] $end
$scope begin genblk7 $end
$upscope $end
$upscope $end
$scope begin col_generator[3] $end
$var wire 9 u squares_missing_single [8:0] $end
$scope begin genblk6 $end
$upscope $end
$upscope $end
$scope begin col_generator[4] $end
$var wire 9 v squares_missing_single [8:0] $end
$scope begin genblk6 $end
$upscope $end
$upscope $end
$scope begin col_generator[5] $end
$var wire 9 w squares_missing_single [8:0] $end
$scope begin genblk6 $end
$upscope $end
$upscope $end
$scope begin col_generator[6] $end
$var wire 9 x squares_missing_single [8:0] $end
$scope begin genblk4 $end
$upscope $end
$upscope $end
$scope begin col_generator[7] $end
$var wire 9 y squares_missing_single [8:0] $end
$scope begin genblk4 $end
$upscope $end
$upscope $end
$scope begin col_generator[8] $end
$var wire 9 z squares_missing_single [8:0] $end
$scope begin genblk4 $end
$upscope $end
$upscope $end
$upscope $end
$scope begin squares_generator[0] $end
$scope begin genblk21[0] $end
$upscope $end
$scope begin genblk21[1] $end
$upscope $end
$scope begin genblk21[2] $end
$upscope $end
$upscope $end
$scope begin squares_generator[1] $end
$scope begin genblk21[0] $end
$upscope $end
$scope begin genblk21[1] $end
$upscope $end
$scope begin genblk21[2] $end
$upscope $end
$upscope $end
$scope begin squares_generator[2] $end
$scope begin genblk21[0] $end
$upscope $end
$scope begin genblk21[1] $end
$upscope $end
$scope begin genblk21[2] $end
$upscope $end
$upscope $end
$upscope $end
$scope task printstatus $end
$upscope $end
$scope task test_solver $end
$upscope $end
$upscope $end
$enddefinitions $end
#0
$dumpvars
b0 z
b0 y
b0 x
b0 w
b0 v
b0 u
b0 t
b0 s
b0 r
b0 q
b0 p
b0 o
b0 n
b0 m
b0 l
b0 k
b0 j
b0 i
b0 h
b0 g
b0 f
b0 e
b0 d
b0 c
b0 b
b0 a
b0 `
b0 _
b0 ^
b0 ]
b0 \
b0 [
b0 Z
b0 Y
b0 X
b0 W
b0 V
b0 U
b0 T
b0 S
b0 R
b0 Q
b0 P
b0 O
b0 N
b0 M
b0 L
b0 K
b0 J
b0 I
b0 H
b0 G
b0 F
b0 E
b0 D
b0 C
b0 B
b0 A
b0 @
b0 ?
b0 >
b0 =
b0 <
b0 ;
b0 :
b0 9
b0 8
b0 7
b0 6
b0 5
b0 4
b0 3
b0 2
b0 1
b0 0
b0 /
b0 .
b0 -
b0 ,
b0 +
b0 *
b0 )
b0 (
b0 '
b0 &
b0 %
b0 $
1#
0"
b0 !
$end
#5
1"
#10
0"
0#
#15
1"
#20
b111111111 z
b111111111 y
b111111111 x
b111111111 q
b111111111 p
b111111111 o
b111111111 h
b111111111 g
b111111111 f
b111111111 w
b111111111 v
b111111111 u
b111111111 n
b111111111 m
b111111111 l
b111111111 e
b111111111 d
b111111111 c
b111111111 t
b111111111 s
b111111111 r
b111111111 k
b111111111 j
b111111111 i
b111111111 b
b111111111 a
b111111111 `
b111111111 (
b111111111 _
b111111111 ^
b111111111 ]
b111111111 V
b111111111 U
b111111111 T
b111111111 M
b111111111 L
b111111111 K
b111111111 \
b111111111 [
b111111111 Z
b111111111 S
b111111111 R
b111111111 Q
b111111111 J
b111111111 I
b111111111 H
b111111111 Y
b111111111 X
b111111111 W
b111111111 P
b111111111 O
b111111111 N
b111111111 G
b111111111 F
b111111111 E
b111111111 D
b111111111 C
b111111111 B
b111111111 ;
b111111111 :
b111111111 9
b111111111 2
b111111111 1
b111111111 0
b111111111 A
b111111111 @
b111111111 ?
b111111111 8
b111111111 7
b111111111 6
b111111111 /
b111111111 .
b111111111 -
b111111111 &
b111111111 >
b111111111 =
b111111111 <
b111111111 5
b111111111 4
b111111111 3
b111111111 ,
b111111111 +
b111111111 *
b111111111 '
b100000010010011101010011011001001001100101000011011010000010000101110101011001110101010010010001001010000011000101010100001000110111100010010110001101101001100001000101011100100001001010000111000101101001010100110100010100100001100101110100001101101000010000111000010100100110100100010111011110010110001100011000010001010010 !
b100000010010011101010011011001001001100101000011011010000010000101110101011001110101010010010001001010000011000101010100001000110111100010010110001101101001100001000101011100100001001010000111000101101001010100110100010100100001100101110100001101101000010000111000010100100110100100010111011110010110001100011000010001010010 )
0"
1#
b1001010100100000010011011010010111011100011001011000100101100000110100100001100011010001111001000100100101010000110101100101100001011110000010000100100111010101001000100101100011011010011000011100110010010001010001001110000010000110010100010101110110010101110001001010000110001101001001100101000110001101010111001000011000 $
b1001010100100000010011011010010111011100011001011000100101100000110100100001100011010001111001000100100101010000110101100101100001011110000010000100100111010101001000100101100011011010011000011100110010010001010001001110000010000110010100010101110110010101110001001010000110001101001001100101000110001101010111001000011000 %
#25
1"
#30
0"
#35
1"
#40
0"
0#
#45
1"
#50
0"
#55
1"
#60
0"
#65
1"
#70
b11111111 '
b11111111 (
b100000010010011101010011011001001001100101000011011010000010000101110101011001110101010010010001001010000011000101010100001000110111100010010110001101101001100001000101011100100001001010000111000101101001010100110100010100100001100101110100001101101000010000111000010100100110100100010111011110010110001100011000010001010000 !
b100000010010011101010011011001001001100101000011011010000010000101110101011001110101010010010001001010000011000101010100001000110111100010010110001101101001100001000101011100100001001010000111000101101001010100110100010100100001100101110100001101101000010000111000010100100110100100010111011110010110001100011000010001010000 )
b11111111 &
b111111101 z
b111111101 y
b111111101 x
b111111101 q
b111111101 p
b111111101 o
b111111101 h
b111111101 g
b111111101 f
0"
1#
b1010100100000010011011010010111011100011001011000100101100000110100100001100011010001111001000100100101010000110101100101100001011110000010000100100111010101001000100101100011011010011000011100110010010001010001001110000010000110010100010101110110010101110001001010000110001101001001100101000110001101010111001000011000 $
b1010100100000010011011010010111011100011001011000100101100000110100100001100011010001111001000100100101010000110101100101100001011110000010000100100111010101001000100101100011011010011000011100110010010001010001001110000010000110010100010101110110010101110001001010000110001101001001100101000110001101010111001000011000 %
#75
1"
#80
0"
#85
1"
#90
0"
0#
#95
b111111111 '
b111111111 (
b100000010010011101010011011001001001100101000011011010000010000101110101011001110101010010010001001010000011000101010100001000110111100010010110001101101001100001000101011100100001001010000111000101101001010100110100010100100001100101110100001101101000010000111000010100100110100100010111011110010110001100011000010001010010 !
b100000010010011101010011011001001001100101000011011010000010000101110101011001110101010010010001001010000011000101010100001000110111100010010110001101101001100001000101011100100001001010000111000101101001010100110100010100100001100101110100001101101000010000111000010100100110100100010111011110010110001100011000010001010010 )
b111111111 &
b111111111 z
b111111111 y
b111111111 x
b111111111 q
b111111111 p
b111111111 o
b111111111 h
b111111111 g
b111111111 f
1"
#100
0"
#105
1"
#110
0"
#115
1"
#120
b111111101 \
b111111101 [
b111111101 Z
b111111101 S
b111111101 R
b111111101 Q
b111111101 J
b111111101 I
b111111101 H
b11110111 '
b11110111 (
b11101111 &
b111111101 z
b111111101 y
b111111101 x
b111111101 q
b111111101 p
b111111101 o
b111111101 h
b111111101 g
b111111101 f
b100000010010011101010011011001001001100101000011011010000010000101110101011001110101010010010001001010000011000101010100000000110111100010010110001101101001100001000101011100100001001010000111000101101001010100110100010100100001100101110100001101101000010000111000010100100110100100010111011110010110001100011000010001010000 !
b100000010010011101010011011001001001100101000011011010000010000101110101011001110101010010010001001010000011000101010100000000110111100010010110001101101001100001000101011100100001001010000111000101101001010100110100010100100001100101110100001101101000010000111000010100100110100100010111011110010110001100011000010001010000 )
0"
1#
b1010100100000010011011010010111011100011001011000100101100000110100100001100011010001111001000100100101010000110101100101100001011110000010000100100111010101001000100101100011011010011000011100110000010001010001001110000010000110010100010101110110010101110001001010000110001101001001100101000110001101010111001000011000 $
b1010100100000010011011010010111011100011001011000100101100000110100100001100011010001111001000100100101010000110101100101100001011110000010000100100111010101001000100101100011011010011000011100110000010001010001001110000010000110010100010101110110010101110001001010000110001101001001100101000110001101010111001000011000 %
#125
1"
#130
0"
#135
1"
#140
0"
0#
#145
b111111111 \
b111111111 [
b111111111 Z
b111111111 S
b111111111 R
b111111111 Q
b111111111 J
b111111111 I
b111111111 H
b111111111 '
b111111111 (
b100000010010011101010011011001001001100101000011011010000010000101110101011001110101010010010001001010000011000101010100001000110111100010010110001101101001100001000101011100100001001010000111000101101001010100110100010100100001100101110100001101101000010000111000010100100110100100010111011110010110001100011000010001010010 !
b100000010010011101010011011001001001100101000011011010000010000101110101011001110101010010010001001010000011000101010100001000110111100010010110001101101001100001000101011100100001001010000111000101101001010100110100010100100001100101110100001101101000010000111000010100100110100100010111011110010110001100011000010001010010 )
b111111111 &
b111111111 z
b111111111 y
b111111111 x
b111111111 q
b111111111 p
b111111111 o
b111111111 h
b111111111 g
b111111111 f
1"
#150
0"
#155
1"
#160
0"
#165
1"
#170
b111111101 \
b111111101 [
b111111101 Z
b111111101 S
b111111101 R
b111111101 Q
b111111101 J
b111111101 I
b111111101 H
b110111111 A
b110111111 @
b110111111 ?
b110111111 8
b110111111 7
b110111111 6
b110111111 /
b110111111 .
b110111111 -
b11110110 '
b11110111 (
b11101101 &
b111111101 z
b111111101 y
b111111101 x
b111111101 q
b111111101 p
b111111101 o
b111111101 h
b111111101 g
b111111101 f
b100000010010000001010011011001001001100101000011011010000010000101110101011001110101010010010001001010000011000101010100000000110111100010010110001101101001100001000101011100100001001010000111000101101001010100110100010100100001100101110100001101101000010000111000010100100110100100010111011110010110001100011000010001010000 !
b100000010010000001010011011001001001100101000011011010000010000101110101011001110101010010010001001010000011000101010100000000110111100010010110001101101001100001000101011100100001001010000111000101101001010100110100010100100001100101110100001101101000010000111000010100100110100100010111011110010110001100011000010001010000 )
0"
1#
b1010100100000010011011010010111011100011001011000100101100000110100100001100011010001111001000100100101010000110101100101100001011110000010000100100111010101001000100101100011011010011000011100110000010001010001001110000010000110010100010101110110010101110001001010000110001101001001100101000110001101010000001000011000 $
b1010100100000010011011010010111011100011001011000100101100000110100100001100011010001111001000100100101010000110101100101100001011110000010000100100111010101001000100101100011011010011000011100110000010001010001001110000010000110010100010101110110010101110001001010000110001101001001100101000110001101010000001000011000 %
#175
1"
#180
0"
#185
1"
#190
0"
0#
#195
b111111111 A
b111111111 @
b111111111 ?
b111111111 8
b111111111 7
b111111111 6
b111111111 /
b111111111 .
b111111111 -
b111111111 \
b111111111 [
b111111111 Z
b111111111 S
b111111111 R
b111111111 Q
b111111111 J
b111111111 I
b111111111 H
b111111111 '
b111111111 (
b100000010010011101010011011001001001100101000011011010000010000101110101011001110101010010010001001010000011000101010100001000110111100010010110001101101001100001000101011100100001001010000111000101101001010100110100010100100001100101110100001101101000010000111000010100100110100100010111011110010110001100011000010001010010 !
b100000010010011101010011011001001001100101000011011010000010000101110101011001110101010010010001001010000011000101010100001000110111100010010110001101101001100001000101011100100001001010000111000101101001010100110100010100100001100101110100001101101000010000111000010100100110100100010111011110010110001100011000010001010010 )
b111111111 &
b111111111 z
b111111111 y
b111111111 x
b111111111 q
b111111111 p
b111111111 o
b111111111 h
b111111111 g
b111111111 f
1"
#200
0"
#205
1"
#210
0"
#215
1"
#220
b1 (
b11010111 D
b11010111 C
b11010111 B
b11010111 ;
b11010111 :
b11010111 9
b11010111 2
b11010111 1
b11010111 0
b110101011 A
b110101011 @
b110101011 ?
b110101011 8
b110101011 7
b110101011 6
b110101011 /
b110101011 .
b110101011 -
b111111000 &
b111111100 >
b111111100 =
b111111100 <
b111111100 5
b111111100 4
b111111100 3
b111111100 ,
b111111100 +
b111111100 *
b111111110 '
b100000000000000000000000000000000000100101000011011010000010000101110101011001110101010010010001001010000011000101010100001000110111100010010110001101101001100001000101011100100001001010000111000101101001010100110100010100100001100101110100001101101000010000111000010100100110100100010111011110010110001100011000010001010010 !
b100000000000000000000000000000000000100101000011011010000010000101110101011001110101010010010001001010000011000101010100001000110111100010010110001101101001100001000101011100100001001010000111000101101001010100110100010100100001100101110100001101101000010000111000010100100110100100010111011110010110001100011000010001010010 )
0"
1#
b1001010100100000010011011010010111011100011001011000100101100000110100100001100011010001111001000100100101010000110101100101100001011110000010000100100111010101001000100101100011011010011000011100110010010001010001001110000010000110010100010101110110010101110001001010000110001101001001000000000000000000000000000000001000 $
b1001010100100000010011011010010111011100011001011000100101100000110100100001100011010001111001000100100101010000110101100101100001011110000010000100100111010101001000100101100011011010011000011100110010010001010001001110000010000110010100010101110110010101110001001010000110001101001001000000000000000000000000000000001000 %
#225
1"
#230
0"
#235
1"
#240
0"
0#
#245
b111111111 '
b111111111 &
b111111111 (
b111111111 >
b111111111 =
b111111111 <
b111111111 5
b111111111 4
b111111111 3
b111111111 ,
b111111111 +
b111111111 *
b111111111 A
b111111111 @
b111111111 ?
b111111111 8
b111111111 7
b111111111 6
b111111111 /
b111111111 .
b111111111 -
b111111111 D
b111111111 C
b111111111 B
b111111111 ;
b111111111 :
b111111111 9
b111111111 2
b111111111 1
b111111111 0
b100000010010011101010011011001001001100101000011011010000010000101110101011001110101010010010001001010000011000101010100001000110111100010010110001101101001100001000101011100100001001010000111000101101001010100110100010100100001100101110100001101101000010000111000010100100110100100010111011110010110001100011000010001010010 !
b100000010010011101010011011001001001100101000011011010000010000101110101011001110101010010010001001010000011000101010100001000110111100010010110001101101001100001000101011100100001001010000111000101101001010100110100010100100001100101110100001101101000010000111000010100100110100100010111011110010110001100011000010001010010 )
1"
#250
0"
#255
1"
#260
0"
#265
1"
#270
b11010111 D
b11010111 C
b11010111 B
b11010111 ;
b11010111 :
b11010111 9
b11010111 2
b11010111 1
b11010111 0
b110101011 A
b110101011 @
b110101011 ?
b110101011 8
b110101011 7
b110101011 6
b110101011 /
b110101011 .
b110101011 -
b110100111 t
b110100111 s
b110100111 r
b110100111 k
b110100111 j
b110100111 i
b110100111 b
b110100111 a
b110100111 `
b111111000 Y
b111111000 X
b111111000 W
b111111000 P
b111111000 O
b111111000 N
b111111000 G
b111111000 F
b111111000 E
b110110000 &
b11011100 >
b11011100 =
b11011100 <
b11011100 5
b11011100 4
b11011100 3
b11011100 ,
b11011100 +
b11011100 *
b0 (
b0 '
b100000000000000000000000000000000000000001000011011010000010000101110101000001110101010010010001001010000011000001010100001000110111100010010110000001101001100001000101011100100001000010000111000101101001010100110100000000100001100101110100001101101000000000111000010100100110100100010111000010010110001100011000010001010010 !
b100000000000000000000000000000000000000001000011011010000010000101110101000001110101010010010001001010000011000001010100001000110111100010010110000001101001100001000101011100100001000010000111000101101001010100110100000000100001100101110100001101101000000000111000010100100110100100010111000010010110001100011000010001010010 )
0"
1#
b1001010100100000010011011010010000011100011001011000100101100000110000100001100011010001111001000100100000010000110101100101100001011110000000000100100111010101001000100101100000011010011000011100110010010001010000001110000010000110010100010101110000010101110001001010000110001101000000000000000000000000000000000000001000 $
b1001010100100000010011011010010000011100011001011000100101100000110000100001100011010001111001000100100000010000110101100101100001011110000000000100100111010101001000100101100000011010011000011100110010010001010000001110000010000110010100010101110000010101110001001010000110001101000000000000000000000000000000000000001000 %
#275
1"
#280
0"
#285
1"
#290
0"
0#
#295
b111111111 (
b111111111 &
b111111111 '
b111111111 A
b111111111 @
b111111111 ?
b111111111 8
b111111111 7
b111111111 6
b111111111 /
b111111111 .
b111111111 -
b111111111 D
b111111111 C
b111111111 B
b111111111 ;
b111111111 :
b111111111 9
b111111111 2
b111111111 1
b111111111 0
b111111111 >
b111111111 =
b111111111 <
b111111111 5
b111111111 4
b111111111 3
b111111111 ,
b111111111 +
b111111111 *
b111111111 Y
b111111111 X
b111111111 W
b111111111 P
b111111111 O
b111111111 N
b111111111 G
b111111111 F
b111111111 E
b111111111 t
b111111111 s
b111111111 r
b111111111 k
b111111111 j
b111111111 i
b111111111 b
b111111111 a
b111111111 `
b100000010010011101010011011001001001100101000011011010000010000101110101011001110101010010010001001010000011000101010100001000110111100010010110001101101001100001000101011100100001001010000111000101101001010100110100010100100001100101110100001101101000010000111000010100100110100100010111011110010110001100011000010001010010 !
b100000010010011101010011011001001001100101000011011010000010000101110101011001110101010010010001001010000011000101010100001000110111100010010110001101101001100001000101011100100001001010000111000101101001010100110100010100100001100101110100001101101000010000111000010100100110100100010111011110010110001100011000010001010010 )
1"
#300
0"
#305
1"
#310
0"
#315
1"
#320
b111111011 z
b111111011 y
b111111011 x
b111111011 q
b111111011 p
b111111011 o
b111111011 h
b111111011 g
b111111011 f
b111111101 \
b111111101 [
b111111101 Z
b111111101 S
b111111101 R
b111111101 Q
b111111101 J
b111111101 I
b111111101 H
b111110111 w
b111110111 v
b111110111 u
b111110111 n
b111110111 m
b111110111 l
b111110111 e
b111110111 d
b111110111 c
b111111110 t
b111111110 s
b111111110 r
b111111110 k
b111111110 j
b111111110 i
b111111110 b
b111111110 a
b111111110 `
b110010011 (
b111101111 _
b111101111 ^
b111101111 ]
b111101111 V
b111101111 U
b111101111 T
b111101111 M
b111101111 L
b111101111 K
b110010011 '
b111111101 D
b111111101 C
b111111101 B
b111111101 ;
b111111101 :
b111111101 9
b111111101 2
b111111101 1
b111111101 0
b111110111 A
b111110111 @
b111110111 ?
b111110111 8
b111110111 7
b111110111 6
b111110111 /
b111110111 .
b111110111 -
b110111111 Y
b110111111 X
b110111111 W
b110111111 P
b110111111 O
b110111111 N
b110111111 G
b110111111 F
b110111111 E
b100000010010011101010011011001001001100101000011011010000010000101110101011001110000000010010001000010000011000101010100000000110111100010010110001101101001100001000101011100100001001010000000000101101001000000110100010100100000100101110000000001101000010000111000010100100110100100010111011110010110001100011000010001010010 !
b100000010010011101010011011001001001100101000011011010000010000101110101011001110000000010010001000010000011000101010100000000110111100010010110001101101001100001000101011100100001001010000000000101101001000000110100010100100000100101110000000001101000010000111000010100100110100100010111011110010110001100011000010001010010 )
b0 &
b111101111 >
b111101111 =
b111101111 <
b111101111 5
b111101111 4
b111101111 3
b111101111 ,
b111101111 +
b111101111 *
0"
1#
b1001010100100000010011011010010111011100011001011000100101100000110100100001100000000001111001000000100101010000110000100101100001000010000010000100100111010101001000100101100011011010011000011100110000010001010001001110000000000110010000000001110110010101110001001010000110001101001001100101000110001101010111001000011000 $
b1001010100100000010011011010010111011100011001011000100101100000110100100001100000000001111001000000100101010000110000100101100001000010000010000100100111010101001000100101100011011010011000011100110000010001010001001110000000000110010000000001110110010101110001001010000110001101001001100101000110001101010111001000011000 %
#325
1"
#330
0"
#335
1"
#340
0"
0#
