6111work/Project/test.vcd
$date
	Sun Sep 30 16:39:03 2018
$end
$version
	Icarus Verilog
$end
$timescale
	1s
$end
$scope module soduku_solver_tb $end
$var wire 324 ! test_output [323:0] $end
$var reg 1 " clk $end
$var reg 1 # reset $end
$var reg 324 $ test_input [323:0] $end
$scope begin genblk1[0] $end
$scope begin genblk2[0] $end
$upscope $end
$scope begin genblk2[1] $end
$upscope $end
$scope begin genblk2[2] $end
$upscope $end
$scope begin genblk2[3] $end
$upscope $end
$scope begin genblk2[4] $end
$upscope $end
$scope begin genblk2[5] $end
$upscope $end
$scope begin genblk2[6] $end
$upscope $end
$scope begin genblk2[7] $end
$upscope $end
$scope begin genblk2[8] $end
$upscope $end
$upscope $end
$scope begin genblk1[1] $end
$scope begin genblk2[0] $end
$upscope $end
$scope begin genblk2[1] $end
$upscope $end
$scope begin genblk2[2] $end
$upscope $end
$scope begin genblk2[3] $end
$upscope $end
$scope begin genblk2[4] $end
$upscope $end
$scope begin genblk2[5] $end
$upscope $end
$scope begin genblk2[6] $end
$upscope $end
$scope begin genblk2[7] $end
$upscope $end
$scope begin genblk2[8] $end
$upscope $end
$upscope $end
$scope begin genblk1[2] $end
$scope begin genblk2[0] $end
$upscope $end
$scope begin genblk2[1] $end
$upscope $end
$scope begin genblk2[2] $end
$upscope $end
$scope begin genblk2[3] $end
$upscope $end
$scope begin genblk2[4] $end
$upscope $end
$scope begin genblk2[5] $end
$upscope $end
$scope begin genblk2[6] $end
$upscope $end
$scope begin genblk2[7] $end
$upscope $end
$scope begin genblk2[8] $end
$upscope $end
$upscope $end
$scope begin genblk1[3] $end
$scope begin genblk2[0] $end
$upscope $end
$scope begin genblk2[1] $end
$upscope $end
$scope begin genblk2[2] $end
$upscope $end
$scope begin genblk2[3] $end
$upscope $end
$scope begin genblk2[4] $end
$upscope $end
$scope begin genblk2[5] $end
$upscope $end
$scope begin genblk2[6] $end
$upscope $end
$scope begin genblk2[7] $end
$upscope $end
$scope begin genblk2[8] $end
$upscope $end
$upscope $end
$scope begin genblk1[4] $end
$scope begin genblk2[0] $end
$upscope $end
$scope begin genblk2[1] $end
$upscope $end
$scope begin genblk2[2] $end
$upscope $end
$scope begin genblk2[3] $end
$upscope $end
$scope begin genblk2[4] $end
$upscope $end
$scope begin genblk2[5] $end
$upscope $end
$scope begin genblk2[6] $end
$upscope $end
$scope begin genblk2[7] $end
$upscope $end
$scope begin genblk2[8] $end
$upscope $end
$upscope $end
$scope begin genblk1[5] $end
$scope begin genblk2[0] $end
$upscope $end
$scope begin genblk2[1] $end
$upscope $end
$scope begin genblk2[2] $end
$upscope $end
$scope begin genblk2[3] $end
$upscope $end
$scope begin genblk2[4] $end
$upscope $end
$scope begin genblk2[5] $end
$upscope $end
$scope begin genblk2[6] $end
$upscope $end
$scope begin genblk2[7] $end
$upscope $end
$scope begin genblk2[8] $end
$upscope $end
$upscope $end
$scope begin genblk1[6] $end
$scope begin genblk2[0] $end
$upscope $end
$scope begin genblk2[1] $end
$upscope $end
$scope begin genblk2[2] $end
$upscope $end
$scope begin genblk2[3] $end
$upscope $end
$scope begin genblk2[4] $end
$upscope $end
$scope begin genblk2[5] $end
$upscope $end
$scope begin genblk2[6] $end
$upscope $end
$scope begin genblk2[7] $end
$upscope $end
$scope begin genblk2[8] $end
$upscope $end
$upscope $end
$scope begin genblk1[7] $end
$scope begin genblk2[0] $end
$upscope $end
$scope begin genblk2[1] $end
$upscope $end
$scope begin genblk2[2] $end
$upscope $end
$scope begin genblk2[3] $end
$upscope $end
$scope begin genblk2[4] $end
$upscope $end
$scope begin genblk2[5] $end
$upscope $end
$scope begin genblk2[6] $end
$upscope $end
$scope begin genblk2[7] $end
$upscope $end
$scope begin genblk2[8] $end
$upscope $end
$upscope $end
$scope begin genblk1[8] $end
$scope begin genblk2[0] $end
$upscope $end
$scope begin genblk2[1] $end
$upscope $end
$scope begin genblk2[2] $end
$upscope $end
$scope begin genblk2[3] $end
$upscope $end
$scope begin genblk2[4] $end
$upscope $end
$scope begin genblk2[5] $end
$upscope $end
$scope begin genblk2[6] $end
$upscope $end
$scope begin genblk2[7] $end
$upscope $end
$scope begin genblk2[8] $end
$upscope $end
$upscope $end
$scope module ss1 $end
$var wire 324 % board_in [323:0] $end
$var wire 1 " clk_in $end
$var wire 1 # reset_in $end
$var wire 9 & squares_solved [8:0] $end
$var wire 9 ' rows_solved [8:0] $end
$var wire 9 ( cols_solved [8:0] $end
$var wire 324 ) board_out [323:0] $end
$scope function bcd $end
$upscope $end
$scope function one_hot $end
$upscope $end
$scope function singleton_solve $end
$upscope $end
$scope function valid_one_cold $end
$upscope $end
$scope begin missing_generator[0] $end
$upscope $end
$scope begin missing_generator[1] $end
$upscope $end
$scope begin missing_generator[2] $end
$upscope $end
$scope begin missing_generator[3] $end
$upscope $end
$scope begin missing_generator[4] $end
$upscope $end
$scope begin missing_generator[5] $end
$upscope $end
$scope begin missing_generator[6] $end
$upscope $end
$scope begin missing_generator[7] $end
$upscope $end
$scope begin missing_generator[8] $end
$upscope $end
$scope begin row_generator[0] $end
$scope begin col_generator[0] $end
$var wire 9 * squares_missing_single [8:0] $end
$scope begin genblk18 $end
$upscope $end
$upscope $end
$scope begin col_generator[1] $end
$var wire 9 + squares_missing_single [8:0] $end
$scope begin genblk18 $end
$upscope $end
$upscope $end
$scope begin col_generator[2] $end
$var wire 9 , squares_missing_single [8:0] $end
$scope begin genblk18 $end
$upscope $end
$upscope $end
$scope begin col_generator[3] $end
$var wire 9 - squares_missing_single [8:0] $end
$scope begin genblk17 $end
$upscope $end
$upscope $end
$scope begin col_generator[4] $end
$var wire 9 . squares_missing_single [8:0] $end
$scope begin genblk17 $end
$upscope $end
$upscope $end
$scope begin col_generator[5] $end
$var wire 9 / squares_missing_single [8:0] $end
$scope begin genblk17 $end
$upscope $end
$upscope $end
$scope begin col_generator[6] $end
$var wire 9 0 squares_missing_single [8:0] $end
$scope begin genblk15 $end
$upscope $end
$upscope $end
$scope begin col_generator[7] $end
$var wire 9 1 squares_missing_single [8:0] $end
$scope begin genblk15 $end
$upscope $end
$upscope $end
$scope begin col_generator[8] $end
$var wire 9 2 squares_missing_single [8:0] $end
$scope begin genblk15 $end
$upscope $end
$upscope $end
$upscope $end
$scope begin row_generator[1] $end
$scope begin col_generator[0] $end
$var wire 9 3 squares_missing_single [8:0] $end
$scope begin genblk18 $end
$upscope $end
$upscope $end
$scope begin col_generator[1] $end
$var wire 9 4 squares_missing_single [8:0] $end
$scope begin genblk18 $end
$upscope $end
$upscope $end
$scope begin col_generator[2] $end
$var wire 9 5 squares_missing_single [8:0] $end
$scope begin genblk18 $end
$upscope $end
$upscope $end
$scope begin col_generator[3] $end
$var wire 9 6 squares_missing_single [8:0] $end
$scope begin genblk17 $end
$upscope $end
$upscope $end
$scope begin col_generator[4] $end
$var wire 9 7 squares_missing_single [8:0] $end
$scope begin genblk17 $end
$upscope $end
$upscope $end
$scope begin col_generator[5] $end
$var wire 9 8 squares_missing_single [8:0] $end
$scope begin genblk17 $end
$upscope $end
$upscope $end
$scope begin col_generator[6] $end
$var wire 9 9 squares_missing_single [8:0] $end
$scope begin genblk15 $end
$upscope $end
$upscope $end
$scope begin col_generator[7] $end
$var wire 9 : squares_missing_single [8:0] $end
$scope begin genblk15 $end
$upscope $end
$upscope $end
$scope begin col_generator[8] $end
$var wire 9 ; squares_missing_single [8:0] $end
$scope begin genblk15 $end
$upscope $end
$upscope $end
$upscope $end
$scope begin row_generator[2] $end
$scope begin col_generator[0] $end
$var wire 9 < squares_missing_single [8:0] $end
$scope begin genblk18 $end
$upscope $end
$upscope $end
$scope begin col_generator[1] $end
$var wire 9 = squares_missing_single [8:0] $end
$scope begin genblk18 $end
$upscope $end
$upscope $end
$scope begin col_generator[2] $end
$var wire 9 > squares_missing_single [8:0] $end
$scope begin genblk18 $end
$upscope $end
$upscope $end
$scope begin col_generator[3] $end
$var wire 9 ? squares_missing_single [8:0] $end
$scope begin genblk17 $end
$upscope $end
$upscope $end
$scope begin col_generator[4] $end
$var wire 9 @ squares_missing_single [8:0] $end
$scope begin genblk17 $end
$upscope $end
$upscope $end
$scope begin col_generator[5] $end
$var wire 9 A squares_missing_single [8:0] $end
$scope begin genblk17 $end
$upscope $end
$upscope $end
$scope begin col_generator[6] $end
$var wire 9 B squares_missing_single [8:0] $end
$scope begin genblk15 $end
$upscope $end
$upscope $end
$scope begin col_generator[7] $end
$var wire 9 C squares_missing_single [8:0] $end
$scope begin genblk15 $end
$upscope $end
$upscope $end
$scope begin col_generator[8] $end
$var wire 9 D squares_missing_single [8:0] $end
$scope begin genblk15 $end
$upscope $end
$upscope $end
$upscope $end
$scope begin row_generator[3] $end
$scope begin col_generator[0] $end
$var wire 9 E squares_missing_single [8:0] $end
$scope begin genblk13 $end
$upscope $end
$upscope $end
$scope begin col_generator[1] $end
$var wire 9 F squares_missing_single [8:0] $end
$scope begin genblk13 $end
$upscope $end
$upscope $end
$scope begin col_generator[2] $end
$var wire 9 G squares_missing_single [8:0] $end
$scope begin genblk13 $end
$upscope $end
$upscope $end
$scope begin col_generator[3] $end
$var wire 9 H squares_missing_single [8:0] $end
$scope begin genblk12 $end
$upscope $end
$upscope $end
$scope begin col_generator[4] $end
$var wire 9 I squares_missing_single [8:0] $end
$scope begin genblk12 $end
$upscope $end
$upscope $end
$scope begin col_generator[5] $end
$var wire 9 J squares_missing_single [8:0] $end
$scope begin genblk12 $end
$upscope $end
$upscope $end
$scope begin col_generator[6] $end
$var wire 9 K squares_missing_single [8:0] $end
$scope begin genblk10 $end
$upscope $end
$upscope $end
$scope begin col_generator[7] $end
$var wire 9 L squares_missing_single [8:0] $end
$scope begin genblk10 $end
$upscope $end
$upscope $end
$scope begin col_generator[8] $end
$var wire 9 M squares_missing_single [8:0] $end
$scope begin genblk10 $end
$upscope $end
$upscope $end
$upscope $end
$scope begin row_generator[4] $end
$scope begin col_generator[0] $end
$var wire 9 N squares_missing_single [8:0] $end
$scope begin genblk13 $end
$upscope $end
$upscope $end
$scope begin col_generator[1] $end
$var wire 9 O squares_missing_single [8:0] $end
$scope begin genblk13 $end
$upscope $end
$upscope $end
$scope begin col_generator[2] $end
$var wire 9 P squares_missing_single [8:0] $end
$scope begin genblk13 $end
$upscope $end
$upscope $end
$scope begin col_generator[3] $end
$var wire 9 Q squares_missing_single [8:0] $end
$scope begin genblk12 $end
$upscope $end
$upscope $end
$scope begin col_generator[4] $end
$var wire 9 R squares_missing_single [8:0] $end
$scope begin genblk12 $end
$upscope $end
$upscope $end
$scope begin col_generator[5] $end
$var wire 9 S squares_missing_single [8:0] $end
$scope begin genblk12 $end
$upscope $end
$upscope $end
$scope begin col_generator[6] $end
$var wire 9 T squares_missing_single [8:0] $end
$scope begin genblk10 $end
$upscope $end
$upscope $end
$scope begin col_generator[7] $end
$var wire 9 U squares_missing_single [8:0] $end
$scope begin genblk10 $end
$upscope $end
$upscope $end
$scope begin col_generator[8] $end
$var wire 9 V squares_missing_single [8:0] $end
$scope begin genblk10 $end
$upscope $end
$upscope $end
$upscope $end
$scope begin row_generator[5] $end
$scope begin col_generator[0] $end
$var wire 9 W squares_missing_single [8:0] $end
$scope begin genblk13 $end
$upscope $end
$upscope $end
$scope begin col_generator[1] $end
$var wire 9 X squares_missing_single [8:0] $end
$scope begin genblk13 $end
$upscope $end
$upscope $end
$scope begin col_generator[2] $end
$var wire 9 Y squares_missing_single [8:0] $end
$scope begin genblk13 $end
$upscope $end
$upscope $end
$scope begin col_generator[3] $end
$var wire 9 Z squares_missing_single [8:0] $end
$scope begin genblk12 $end
$upscope $end
$upscope $end
$scope begin col_generator[4] $end
$var wire 9 [ squares_missing_single [8:0] $end
$scope begin genblk12 $end
$upscope $end
$upscope $end
$scope begin col_generator[5] $end
$var wire 9 \ squares_missing_single [8:0] $end
$scope begin genblk12 $end
$upscope $end
$upscope $end
$scope begin col_generator[6] $end
$var wire 9 ] squares_missing_single [8:0] $end
$scope begin genblk10 $end
$upscope $end
$upscope $end
$scope begin col_generator[7] $end
$var wire 9 ^ squares_missing_single [8:0] $end
$scope begin genblk10 $end
$upscope $end
$upscope $end
$scope begin col_generator[8] $end
$var wire 9 _ squares_missing_single [8:0] $end
$scope begin genblk10 $end
$upscope $end
$upscope $end
$upscope $end
$scope begin row_generator[6] $end
$scope begin col_generator[0] $end
$var wire 9 ` squares_missing_single [8:0] $end
$scope begin genblk7 $end
$upscope $end
$upscope $end
$scope begin col_generator[1] $end
$var wire 9 a squares_missing_single [8:0] $end
$scope begin genblk7 $end
$upscope $end
$upscope $end
$scope begin col_generator[2] $end
$var wire 9 b squares_missing_single [8:0] $end
$scope begin genblk7 $end
$upscope $end
$upscope $end
$scope begin col_generator[3] $end
$var wire 9 c squares_missing_single [8:0] $end
$scope begin genblk6 $end
$upscope $end
$upscope $end
$scope begin col_generator[4] $end
$var wire 9 d squares_missing_single [8:0] $end
$scope begin genblk6 $end
$upscope $end
$upscope $end
$scope begin col_generator[5] $end
$var wire 9 e squares_missing_single [8:0] $end
$scope begin genblk6 $end
$upscope $end
$upscope $end
$scope begin col_generator[6] $end
$var wire 9 f squares_missing_single [8:0] $end
$scope begin genblk4 $end
$upscope $end
$upscope $end
$scope begin col_generator[7] $end
$var wire 9 g squares_missing_single [8:0] $end
$scope begin genblk4 $end
$upscope $end
$upscope $end
$scope begin col_generator[8] $end
$var wire 9 h squares_missing_single [8:0] $end
$scope begin genblk4 $end
$upscope $end
$upscope $end
$upscope $end
$scope begin row_generator[7] $end
$scope begin col_generator[0] $end
$var wire 9 i squares_missing_single [8:0] $end
$scope begin genblk7 $end
$upscope $end
$upscope $end
$scope begin col_generator[1] $end
$var wire 9 j squares_missing_single [8:0] $end
$scope begin genblk7 $end
$upscope $end
$upscope $end
$scope begin col_generator[2] $end
$var wire 9 k squares_missing_single [8:0] $end
$scope begin genblk7 $end
$upscope $end
$upscope $end
$scope begin col_generator[3] $end
$var wire 9 l squares_missing_single [8:0] $end
$scope begin genblk6 $end
$upscope $end
$upscope $end
$scope begin col_generator[4] $end
$var wire 9 m squares_missing_single [8:0] $end
$scope begin genblk6 $end
$upscope $end
$upscope $end
$scope begin col_generator[5] $end
$var wire 9 n squares_missing_single [8:0] $end
$scope begin genblk6 $end
$upscope $end
$upscope $end
$scope begin col_generator[6] $end
$var wire 9 o squares_missing_single [8:0] $end
$scope begin genblk4 $end
$upscope $end
$upscope $end
$scope begin col_generator[7] $end
$var wire 9 p squares_missing_single [8:0] $end
$scope begin genblk4 $end
$upscope $end
$upscope $end
$scope begin col_generator[8] $end
$var wire 9 q squares_missing_single [8:0] $end
$scope begin genblk4 $end
$upscope $end
$upscope $end
$upscope $end
$scope begin row_generator[8] $end
$scope begin col_generator[0] $end
$var wire 9 r squares_missing_single [8:0] $end
$scope begin genblk7 $end
$upscope $end
$upscope $end
$scope begin col_generator[1] $end
$var wire 9 s squares_missing_single [8:0] $end
$scope begin genblk7 $end
$upscope $end
$upscope $end
$scope begin col_generator[2] $end
$var wire 9 t squares_missing_single [8:0] $end
$scope begin genblk7 $end
$upscope $end
$upscope $end
$scope begin col_generator[3] $end
$var wire 9 u squares_missing_single [8:0] $end
$scope begin genblk6 $end
$upscope $end
$upscope $end
$scope begin col_generator[4] $end
$var wire 9 v squares_missing_single [8:0] $end
$scope begin genblk6 $end
$upscope $end
$upscope $end
$scope begin col_generator[5] $end
$var wire 9 w squares_missing_single [8:0] $end
$scope begin genblk6 $end
$upscope $end
$upscope $end
$scope begin col_generator[6] $end
$var wire 9 x squares_missing_single [8:0] $end
$scope begin genblk4 $end
$upscope $end
$upscope $end
$scope begin col_generator[7] $end
$var wire 9 y squares_missing_single [8:0] $end
$scope begin genblk4 $end
$upscope $end
$upscope $end
$scope begin col_generator[8] $end
$var wire 9 z squares_missing_single [8:0] $end
$scope begin genblk4 $end
$upscope $end
$upscope $end
$upscope $end
$scope begin squares_generator[0] $end
$scope begin genblk21[0] $end
$upscope $end
$scope begin genblk21[1] $end
$upscope $end
$scope begin genblk21[2] $end
$upscope $end
$upscope $end
$scope begin squares_generator[1] $end
$scope begin genblk21[0] $end
$upscope $end
$scope begin genblk21[1] $end
$upscope $end
$scope begin genblk21[2] $end
$upscope $end
$upscope $end
$scope begin squares_generator[2] $end
$scope begin genblk21[0] $end
$upscope $end
$scope begin genblk21[1] $end
$upscope $end
$scope begin genblk21[2] $end
$upscope $end
$upscope $end
$upscope $end
$scope task printstatus $end
$upscope $end
$scope task test_solver $end
$upscope $end
$upscope $end
$enddefinitions $end
#0
$dumpvars
b0 z
b0 y
b0 x
b0 w
b0 v
b0 u
b0 t
b0 s
b0 r
b0 q
b0 p
b0 o
b0 n
b0 m
b0 l
b0 k
b0 j
b0 i
b0 h
b0 g
b0 f
b0 e
b0 d
b0 c
b0 b
b0 a
b0 `
b0 _
b0 ^
b0 ]
b0 \
b0 [
b0 Z
b0 Y
b0 X
b0 W
b0 V
b0 U
b0 T
b0 S
b0 R
b0 Q
b0 P
b0 O
b0 N
b0 M
b0 L
b0 K
b0 J
b0 I
b0 H
b0 G
b0 F
b0 E
b0 D
b0 C
b0 B
b0 A
b0 @
b0 ?
b0 >
b0 =
b0 <
b0 ;
b0 :
b0 9
b0 8
b0 7
b0 6
b0 5
b0 4
b0 3
b0 2
b0 1
b0 0
b0 /
b0 .
b0 -
b0 ,
b0 +
b0 *
b0 )
b0 (
b0 '
b0 &
b0 %
b0 $
1#
0"
b0 !
$end
#5
1"
#10
0"
0#
#15
1"
#20
b1000001 \
b1000001 [
b1000001 Z
b1000001 S
b1000001 R
b1000001 Q
b1000001 J
b1000001 I
b1000001 H
b100000100 w
b100000100 v
b100000100 u
b100000100 n
b100000100 m
b100000100 l
b100000100 e
b100000100 d
b100000100 c
b100111010 Y
b100111010 X
b100111010 W
b100111010 P
b100111010 O
b100111010 N
b100111010 G
b100111010 F
b100111010 E
b1110000 A
b1110000 @
b1110000 ?
b1110000 8
b1110000 7
b1110000 6
b1110000 /
b1110000 .
b1110000 -
b100100000 D
b100100000 C
b100100000 B
b100100000 ;
b100100000 :
b100100000 9
b100100000 2
b100100000 1
b100100000 0
b11001 >
b11001 =
b11001 <
b11001 5
b11001 4
b11001 3
b11001 ,
b11001 +
b11001 *
b100001000 z
b100001000 y
b100001000 x
b100001000 q
b100001000 p
b100001000 o
b100001000 h
b100001000 g
b100001000 f
b1010110 _
b1010110 ^
b1010110 ]
b1010110 V
b1010110 U
b1010110 T
b1010110 M
b1010110 L
b1010110 K
b101000000000110000000000000000000000001000000000111000000000000000001000000010100000000100101100000010010010000000000000001010100000000000001010010011100000000001100000000011000000000000000000000000000100111000000000000000000001001000000000100000000000000000000000000000000000000000000000000001100000000000000001001 !
b101000000000110000000000000000000000001000000000111000000000000000001000000010100000000100101100000010010010000000000000001010100000000000001010010011100000000001100000000011000000000000000000000000000100111000000000000000000001001000000000100000000000000000000000000000000000000000000000000001100000000000000001001 )
0"
1#
b100100000000000000000011000000000000000000000000000000000000000000000000010000000000100100000000000000000000011100100000000000000000000000000110000000000011000000000111001001010000000000000101000100000000000010010100000001101001000000000101000001000000000000000000011100000000000100000000000000000000011000000000010100000000 $
b100100000000000000000011000000000000000000000000000000000000000000000000010000000000100100000000000000000000011100100000000000000000000000000110000000000011000000000111001001010000000000000101000100000000000010010100000001101001000000000101000001000000000000000000011100000000000100000000000000000000011000000000010100000000 %
#25
1"
#30
0"
#35
1"
#40
0"
0#
#45
b11010110 _
b11010110 ^
b11010110 ]
b11010110 V
b11010110 U
b11010110 T
b11010110 M
b11010110 L
b11010110 K
b101000000000110000000000000000000000001000000000111000000000000000001000000010100000000100101100000010010010000000000000001010110000000000001010010011100000000001100000000011000000000000000000000000000100111000000000000000000001001000000000100000000000000000000000000000000000000000000000000001100000000000000001001 !
b101000000000110000000000000000000000001000000000111000000000000000001000000010100000000100101100000010010010000000000000001010110000000000001010010011100000000001100000000011000000000000000000000000000100111000000000000000000001001000000000100000000000000000000000000000000000000000000000000001100000000000000001001 )
1"
#50
0"
#55
b11110110 _
b11110110 ^
b11110110 ]
b11110110 V
b11110110 U
b11110110 T
b11110110 M
b11110110 L
b11110110 K
b101000000000110000000000000000000000001000000000111000000000000000001000000010100000000100101100000010010010000000000000001010110000110000001010010011100000000001100000000011000000000000000000000000000100111000000000000000000001001000000000100000000000000000000000000000000000000000000000000001100000000000000001001 !
b101000000000110000000000000000000000001000000000111000000000000000001000000010100000000100101100000010010010000000000000001010110000110000001010010011100000000001100000000011000000000000000000000000000100111000000000000000000001001000000000100000000000000000000000000000000000000000000000000001100000000000000001001 )
1"
#60
0"
#65
b1000011 \
b1000011 [
b1000011 Z
b1000011 S
b1000011 R
b1000011 Q
b1000011 J
b1000011 I
b1000011 H
b11110111 _
b11110111 ^
b11110111 ]
b11110111 V
b11110111 U
b11110111 T
b11110111 M
b11110111 L
b11110111 K
b101000000000110000000000000000000000001000000000111000000000000000001000000010100000000100101100000010010010000001000000001010110000110000001010010011100000000001100000001011000000000000000000000000000100111000000000000000000001001000000000100000000000000000000000000000000000000000000000000001100000000000000001001 !
b101000000000110000000000000000000000001000000000111000000000000000001000000010100000000100101100000010010010000001000000001010110000110000001010010011100000000001100000001011000000000000000000000000000100111000000000000000000001001000000000100000000000000000000000000000000000000000000000000001100000000000000001001 )
1"
#70
0"
#75
b1000111 \
b1000111 [
b1000111 Z
b1000111 S
b1000111 R
b1000111 Q
b1000111 J
b1000111 I
b1000111 H
b110111010 Y
b110111010 X
b110111010 W
b110111010 P
b110111010 O
b110111010 N
b110111010 G
b110111010 F
b110111010 E
b11111111 _
b11111111 ^
b11111111 ]
b11111111 V
b11111111 U
b11111111 T
b11111111 M
b11111111 L
b11111111 K
b101000000000110000000000000000000000001000000000111000000000000000001000000010100000000100101100000010010010000001000110001010110000110100001010010011100000000001100000001011000000000000000000000010000100111000000000000000000001001000000000100000000000000000000000000000000000000000000000000001100000000000000001001 !
b101000000000110000000000000000000000001000000000111000000000000000001000000010100000000100101100000010010010000001000110001010110000110100001010010011100000000001100000001011000000000000000000000010000100111000000000000000000001001000000000100000000000000000000000000000000000000000000000000001100000000000000001001 )
1"
#80
0"
#85
b1000 '
b100000 &
b111111111 _
b111111111 ^
b111111111 ]
b111111111 V
b111111111 U
b111111111 T
b111111111 M
b111111111 L
b111111111 K
b1001111 \
b1001111 [
b1001111 Z
b1001111 S
b1001111 R
b1001111 Q
b1001111 J
b1001111 I
b1001111 H
b101000000000110000000000000000000000001000000000111000000000000000001000000010100000000100101100000010010010111001000110001010110000110100001010010011100000100001110010001011000000011000000000000010000100111000000000000000000001001000000000100000000000000000000000000000000000000000000000000001100000000000000001001 !
b101000000000110000000000000000000000001000000000111000000000000000001000000010100000000100101100000010010010111001000110001010110000110100001010010011100000100001110010001011000000011000000000000010000100111000000000000000000001001000000000100000000000000000000000000000000000000000000000000001100000000000000001001 )
b111111110 Y
b111111110 X
b111111110 W
b111111110 P
b111111110 O
b111111110 N
b111111110 G
b111111110 F
b111111110 E
1"
#90
0"
#95
b11000 '
b1101111 \
b1101111 [
b1101111 Z
b1101111 S
b1101111 R
b1101111 Q
b1101111 J
b1101111 I
b1101111 H
b101000 &
b111111111 Y
b111111111 X
b111111111 W
b111111111 P
b111111111 O
b111111111 N
b111111111 G
b111111111 F
b111111111 E
b101000000000110000000000000000000000001000000000111000000000000000001001000010100000000100101100000010010010111001000110001010110000110100001010010011101100100001110010001011000010011000000000000010000100111000000000000000000001001000000000100000000000000000000000000000000000000000000000000001100000000000000001001 !
b101000000000110000000000000000000000001000000000111000000000000000001001000010100000000100101100000010010010111001000110001010110000110100001010010011101100100001110010001011000010011000000000000010000100111000000000000000000001001000000000100000000000000000000000000000000000000000000000000001100000000000000001001 )
b10011001 >
b10011001 =
b10011001 <
b10011001 5
b10011001 4
b10011001 3
b10011001 ,
b10011001 +
b10011001 *
1"
#100
0"
#105
b100000 t
b100000 s
b100000 r
b100000 k
b100000 j
b100000 i
b100000 b
b100000 a
b100000 `
b101000000000110000000000000000000000001000000000111000000000000000001001000010100000000100101100000010010010111001000110001010110000110100001010010011101100100001110010001011000010011000000000000010000100111000000000110000000001001000000000100000000000000000000000000000000000000000000000000001100000000000000001001 !
b101000000000110000000000000000000000001000000000111000000000000000001001000010100000000100101100000010010010111001000110001010110000110100001010010011101100100001110010001011000010011000000000000010000100111000000000110000000001001000000000100000000000000000000000000000000000000000000000000001100000000000000001001 )
1"
#110
0"
#115
b101000000000110000000000000000000000001000000000111000000000000000001001000010100000000100101100000010010010111001000110001010110000110100001010010011101100100001110010001011000010011000000000000010000100111000000000110000000001001000000000100000000000000000000000000000000000000000000000100001100000000000000001001 !
b101000000000110000000000000000000000001000000000111000000000000000001001000010100000000100101100000010010010111001000110001010110000110100001010010011101100100001110010001011000010011000000000000010000100111000000000110000000001001000000000100000000000000000000000000000000000000000000000100001100000000000000001001 )
b101000 t
b101000 s
b101000 r
b101000 k
b101000 j
b101000 i
b101000 b
b101000 a
b101000 `
1"
#120
0"
#125
b100101000 t
b100101000 s
b100101000 r
b100101000 k
b100101000 j
b100101000 i
b100101000 b
b100101000 a
b100101000 `
b100 (
b101000000000110000000000000000000000001000000000111000000000000000001001000010100000000100101100000010010010111001000110001010110000110100001010010011101100100001110010001011000010011000000000000010000100111000000000110000000001001000000000100000000001001000000000000000000000000000000000100001100000000000000001001 !
b101000000000110000000000000000000000001000000000111000000000000000001001000010100000000100101100000010010010111001000110001010110000110100001010010011101100100001110010001011000010011000000000000010000100111000000000110000000001001000000000100000000001001000000000000000000000000000000000100001100000000000000001001 )
1"
